id,name,model_id:id,group_id:id,perm_read,perm_write,perm_create,perm_unlink
,,,,,,,
,,,,,,,
all_access_dosificacion,all_access_dosificacion,model_dosificacion,,1,1,1,1
all_access_txt_extend,all_access_txt_extend,model_txt_extended,,1,1,1,1
all_access_xls_extend,all_access_xls_extend,model_xls_extended,,1,1,1,1
all_access_detalle_libro_venta,all_access_detalle_libro_venta,model_detalle_libro_venta,,1,1,1,1
all_access_generar_codigo_control,all_access_generar_codigo_control,model_generar_codigo_control,,1,1,1,1
,,,,,,,
paperformat_access_admin,paperformat_access_admin_all,base.model_report_paperformat,base.group_system,1,1,1,1